Class21
…
  #mutate(latitude = pi*latitude/180, longitude = pi*longitude/180,
                #dtime = scale(dtime)[,1])
dim(bison)

## [1] 4024    3

bison

## # A tibble: 4,024 x 3
##    latitude longitude dtime
##       <dbl>     <dbl> <dbl>
##  1     35.9     -79.1  2611
##  2     35.9     -79.1  2619
##  3     35.9     -79.1  2610
##  4     35.9     -79.1  2555
##  5     35.9     -79.1  2533
##  6     35.9     -79.1  2148
##  7     35.9     -79.1  2609
##  8     35.9     -79.1  2608
##  9     35.9     -79.1  2603
## 10     35.9     -79.1  2598
## #  with 4,014 more rows
…
