tidy data and joining, part c
…
Careful with the `select`-like syntax. This doesn't work

```r
pivot_longer(debt, -date, -financial, names_to = "sector", values_to = "billions")
```

But this does. Notice all variables not pivoted are kept.

```r
pivot_longer(debt, contains("_"), names_to = "sector", values_to = "billions")
```

```
## # A tibble: 2,072 x 6
##    date    federal financial foreign sector                      billions
##    <chr>     <dbl>     <dbl>   <dbl> <chr>                          <dbl>
##  1 1945:Q4  254385      5692    5520 domestic_nonfinancial_total   352402
##  2 1945:Q4  254385      5692    5520 household_total                29442
##  3 1945:Q4  254385      5692    5520 household_mortgage             18706
##  4 1945:Q4  254385      5692    5520 household_credit                6800
##  5 1945:Q4  254385      5692    5520 business_total                 55940
##  6 1945:Q4  254385      5692    5520 business_corporate             44653
##  7 1945:Q4  254385      5692    5520 state_and_local                12635
##  8 1946:Q1      NA        NA      NA domestic_nonfinancial_total       NA
##  9 1946:Q1      NA        NA      NA household_total                   NA
## 10 1946:Q1      NA        NA      NA household_mortgage                NA
## # … with 2,062 more rows
```
…
