data manipulation, part b: filtering and subsetting in dplyr
…
---
# Subsetting columns: `select`

Syntax is `select(data_frame, column1, column2, ...)` with **unquoted** column names.

```r
select(bison, eventDate, year)
```

```
## # A tibble: 65,499 x 2
##    eventDate            year
##    <dttm>              <dbl>
##  1 2012-12-29 00:00:00  2012
##  2 2012-12-21 00:00:00  2012
##  3 2012-12-30 00:00:00  2012
##  4 2012-12-21 00:00:00  2012
##  5 2012-12-29 00:00:00  2012
##  6 2013-02-23 00:00:00  2013
##  7 2013-02-23 00:00:00  2013
##  8 2013-02-23 00:00:00  2013
##  9 2013-02-23 00:00:00  2013
## 10 2013-02-23 00:00:00  2013
## # … with 65,489 more rows
```

---
To select all columns **except** specified columns, use minus sign before the column name.

```r
select(bison, -eventDate, -year)
```

```
## # A tibble: 65,499 x 35
##    bisonID basisOfRecord catalogNumber collectorNumber recordedBy providerID
##      <dbl> <chr>         <chr>         <lgl>           <chr>           <dbl>
##  1  8.44e8 observation   OBS174171744  NA              obsr143470        602
##  2  8.44e8 observation   OBS173343892  NA              obsr143470        602
##  3  8.46e8 observation   OBS174269666  NA              obsr143470        602
##  4  8.47e8 observation   OBS173343881  NA              obsr143470        602
##  5  8.47e8 observation   OBS174171742  NA              obsr143470        602
##  6  9.41e8 observation   OBS182987416  NA              obsr143470        602
##  7  9.41e8 observation   OBS182987420  NA              obsr143470        602
##  8  9.41e8 observation   OBS182987419  NA              obsr143470        602
##  9  9.41e8 observation   OBS182987418  NA              obsr143470        602
## 10  9.41e8 observation   OBS182987421  NA              obsr143470        602
## # … with 65,489 more rows, and 29 more variables: institutionCode <chr>,
## #   resourceID <dbl>, ownerInstitutionCollectionCode <chr>,
## #   providedScientificName <chr>, scientificName <chr>,
## #   ITISscientificName <chr>, providedCommonName <chr>, ITIScommonName <chr>,
## #   ITIStsn <chr>, validAcceptedITIStsn <dbl>, providedTSN <lgl>,
## #   decimalLatitude <dbl>, decimalLongitude <dbl>, geodeticDatum <lgl>,
## #   coordinatePrecision <lgl>, coordinateUncertaintyInMeters <chr>,
## #   verbatimElevation <chr>, verbatimDepth <lgl>, centroid <lgl>,
## #   higherGeographyID <lgl>, computedCountyFips <dbl>, providedCounty <chr>,
…
---
Get all columns containing a certain character pattern with the **helper function** `contains`.

Not case sensitive by default!

```r
select(bison, contains("name"))
```

```
## # A tibble: 65,499 x 5
##    providedScienti… scientificName ITISscientificN… providedCommonN…
##    <chr>            <chr>          <chr>            <chr>           
##  1 Setophaga coron… Setophaga cor… Setophaga coron… Yellow-rumped W…
##  2 Sialia sialis (… Sialia sialis  Sialia sialis    Eastern Bluebird
##  3 Thryothorus lud… Thryothorus l… Thryothorus lud… Carolina Wren   
##  4 Zenaida macrour… Zenaida macro… Zenaida macroura Mourning Dove   
##  5 Thryothorus lud… Thryothorus l… Thryothorus lud… Carolina Wren   
##  6 Sitta carolinen… Sitta carolin… Sitta carolinen… White-breasted …
##  7 Pipilo erythrop… Pipilo erythr… Pipilo erythrop… Eastern Towhee  
##  8 Setophaga coron… Setophaga cor… Setophaga coron… Yellow-rumped W…
##  9 Toxostoma rufum… Toxostoma ruf… Toxostoma rufum  Brown Thrasher  
## 10 Cardinalis card… Cardinalis ca… Cardinalis card… Northern Cardin…
## # … with 65,489 more rows, and 1 more variable: ITIScommonName <chr>
```
…
```
## # A tibble: 65,499 x 0
```

Nothing to see here...
---
Several other select helper functions. See `?select_helpers`, e.g.

```r
select(bison, ends_with("tude"))
```

```
## # A tibble: 65,499 x 2
##    decimalLatitude decimalLongitude
##              <dbl>            <dbl>
##  1            35.9            -79.1
##  2            35.9            -79.1
##  3            35.9            -79.1
##  4            35.9            -79.1
##  5            35.9            -79.1
##  6            35.9            -79.1
##  7            35.9            -79.1
##  8            35.9            -79.1
##  9            35.9            -79.1
## 10            35.9            -79.1
## # … with 65,489 more rows
```
…
```
## [1] FALSE FALSE  TRUE FALSE
```

**We found a problem!**

```r
filter(bison, is.na(ITISscientificName) | is.na(ITIScommonName))
```

```
## # A tibble: 2,059 x 17
##    latitude longitude bisonID providerID resourceID higherGeography…
##       <dbl>     <dbl>   <dbl>      <dbl>      <dbl> <lgl>           
##  1     36.0     -79.0  1.22e9        440  440100057 NA              
##  2     36.0     -79.0  1.22e9        440  440100057 NA              
##  3     36.0     -79.0  1.22e9        440  440100057 NA              
##  4     36.0     -79.0  1.22e9        440  440100057 NA              
##  5     36.0     -79.0  1.22e9        440  440100057 NA              
##  6     36.0     -79.0  1.22e9        440  440100057 NA              
##  7     35.9     -79.0  1.22e9        440  440100057 NA              
##  8     35.9     -79.0  1.22e9        440  440100057 NA              
##  9     36.0     -79.0  1.22e9        440  440100057 NA              
## 10     36.0     -79.0  1.22e9        440  440100057 NA              
## # … with 2,049 more rows, and 11 more variables: institutionID <chr>,
## #   collectionID <chr>, relatedResourceID <lgl>, providedScientificName <chr>,
## #   scientificName <chr>, ITISscientificName <chr>, providedCommonName <chr>,
## #   ITIScommonName <chr>, institutionCode <chr>, eventDate <dttm>, year <dbl>
```
…
